140
34.970001	35.470001	33.880001	34.299999	26362100	10/27/15
33.130001	33.490002	33	33.400002	15752400	10/26/15
32.650002	33.360001	32.240002	33.169998	24286300	10/23/15
31.26	31.9	31.209999	31.67	18180500	10/22/15
32.060001	32.43	31.01	31.120001	30390400	10/21/15
33.490002	33.59	32.77	32.830002	18644700	10/20/15
33.259998	33.630001	33.18	33.5	10836800	10/19/15
33.639999	33.860001	33.16	33.369999	12209300	10/16/15
32.419998	33.490002	32.400002	33.48	19370900	10/15/15
32.279999	32.490002	31.77	32.09	11277400	10/14/15
32.560001	32.830002	32.32	32.34	12610500	10/13/15
32.709999	33.02	32.549999	32.860001	12565800	10/12/15
32.349998	32.689999	31.99	32.52	11822100	10/9/15
31.790001	32.5	31.73	32.369999	14239400	10/8/15
31.309999	31.99	31.209999	31.870001	11991000	10/7/15
30.790001	31.190001	30.66	30.959999	10572800	10/6/15
30.799999	31.200001	30.35	30.85	12655000	10/5/15
28.620001	30.709999	28.43	30.709999	29098500	10/2/15
28.950001	29	28.440001	28.91	14459100	10/1/15
28.65	29.110001	28.49	28.91	17861800	9/30/15
28.58	29.23	27.85	28.26	41761600	9/29/15
29.030001	29.219999	27.200001	27.6	49088700	9/28/15
29.66	29.709999	28.91	29.129999	11525300	9/25/15
29.469999	29.57	28.85	29.34	18723200	9/24/15
30.559999	30.57	29.629999	29.74	12674700	9/23/15
30.780001	30.92	30.17	30.4	15257000	9/22/15
31.200001	31.74	30.879999	31.17	18413400	9/21/15
30.51	30.799999	30.41	30.74	20144700	9/18/15
31.309999	31.33	30.809999	30.93	16546900	9/17/15
31.139999	31.77	30.99	31.4	22171700	9/16/15
29.719999	31.23	29.41	31.040001	25637600	9/15/15
30.68	30.92	30	30.32	21951500	9/14/15
31.09	31.43	30.629999	31.43	14312100	9/11/15
31.35	31.59	31.030001	31.15	14287600	9/10/15
30.4	31.799999	30.35	31.52	46957000	9/9/15
32.200001	32.830002	30.860001	30.9	25238500	9/8/15
32	32.290001	31.440001	31.58	13829900	9/4/15
31.860001	32.740002	31.799999	32.540001	13710700	9/3/15
32.009998	32.029999	31.379999	31.77	15551500	9/2/15
31.49	32.099998	31.23	31.6	19828300	9/1/15
32.91	32.990002	32.23	32.240002	13575100	8/31/15
33.32	33.57	32.93	33.139999	9359500	8/28/15
33.360001	33.77	32.950001	33.689999	18949200	8/27/15
32.459999	32.619999	31.110001	32.52	25375600	8/26/15
32.98	33.029999	31.540001	31.74	15626100	8/25/15
29.02	32.279999	29	31.309999	22876900	8/24/15
33.580002	34.02	32.91	32.93	18271700	8/21/15
34.77	34.950001	33.869999	34.099998	15525800	8/20/15
35.669998	35.669998	35.029999	35.189999	8974100	8/19/15
35.779999	36.189999	35.599998	35.689999	11422700	8/18/15
36.240002	36.240002	35.77	36.099998	7923100	8/17/15
35.82	36.349998	35.720001	36.240002	12238300	8/14/15
35.080002	36.610001	34.82	35.93	28981100	8/13/15
34.290001	34.77	33.849998	34.490002	31405700	8/12/15
36.740002	36.77	35.73	36.029999	13677300	8/11/15
36.869999	37.689999	36.869999	37.150002	11266600	8/10/15
36.52	36.759998	36.150002	36.669998	11825800	8/7/15
37.34	37.52	36.299999	36.459999	12045400	8/6/15
37.32	37.709999	37.23	37.25	6837900	8/5/15
36.610001	37.209999	36.599998	37.119999	8999000	8/4/15
36.669998	36.98	36.369999	36.689999	9853500	8/3/15
37.560001	37.57	36.619999	36.669998	15478000	7/31/15
37.5	37.689999	37.299999	37.419998	9513200	7/30/15
37.919998	37.919998	37.380001	37.669998	9739400	7/29/15
37.639999	37.919998	37.27	37.720001	10315100	7/28/15
38.310001	38.310001	37.650002	37.84	12872800	7/27/15
39.580002	39.580002	38.669998	38.849998	8557000	7/24/15
39.299999	39.779999	39.060001	39.209999	9241700	7/23/15
38.57	39.630001	38.259998	39.240002	17115400	7/22/15
39.610001	39.849998	39.349998	39.73	14513300	7/21/15
39.98	39.98	39.259998	39.540001	13909400	7/20/15
39.189999	39.790001	38.93	39.68	14421500	7/17/15
38.700001	38.959999	38.599998	38.91	8406900	7/16/15
38.509998	38.799999	38.150002	38.380001	9123300	7/15/15
38.650002	39.029999	38.439999	38.630001	9464500	7/14/15
38.25	38.799999	38.099998	38.759998	8665000	7/13/15
38.349998	38.419998	37.779999	37.919998	9559100	7/10/15
38.23	38.68	37.52	37.610001	16871200	7/9/15
37.200001	37.490002	36.939999	37.23	20430200	7/8/15
38.240002	38.380001	36.580002	38.23	19424200	7/7/15
38.759998	39.119999	38.459999	38.610001	11761500	7/6/15
39.259998	39.639999	39.189999	39.380001	7708100	7/2/15
39.459999	39.779999	39.150002	39.330002	6385000	7/1/15
39.389999	39.650002	39.189999	39.290001	11170200	6/30/15
39.490002	39.779999	38.849998	38.91	12452700	6/29/15
40.830002	40.869999	39.93	40.060001	16011600	6/26/15
41.099998	41.389999	40.900002	41.07	10764100	6/25/15
40.68	41.23	40.580002	40.939999	11444300	6/24/15
40.740002	40.799999	40.509998	40.650002	6846300	6/23/15
40.66	40.889999	40.540001	40.73	6127200	6/22/15
40.900002	40.93	40.369999	40.509998	11586600	6/19/15
41.040001	41.27	40.790001	40.91	10003000	6/18/15
40.799999	41.52	40.779999	40.959999	11936400	6/17/15
40.349998	41.400002	40.02	40.639999	20439700	6/16/15
40.240002	40.669998	40.209999	40.470001	10869500	6/15/15
40.77	41.110001	40.459999	40.529999	9220600	6/12/15
42.09	42.209999	40.549999	40.939999	23654400	6/11/15
41.700001	42.310001	41.689999	42.060001	7930000	6/10/15
41.919998	41.950001	41.02	41.630001	11943500	6/9/15
42.720001	42.889999	42	42.009998	7596300	6/8/15
42.830002	43.259998	42.700001	42.810001	8307600	6/5/15
43.09	43.439999	42.759998	42.880001	8055400	6/4/15
43.299999	43.779999	42.98	43.209999	11884100	6/3/15
43.18	43.619999	42.919998	43.150002	8863900	6/2/15
43.049999	43.630001	42.91	43.349998	11150700	6/1/15
43.450001	43.59	42.810001	42.939999	10901500	5/29/15
43.060001	43.419998	42.93	43.07	10988400	5/28/15
42.599998	43.439999	42.279999	43.380001	13671900	5/27/15
43.41	43.5	42.580002	42.849998	12776200	5/26/15
43.580002	44	43.470001	43.490002	10271700	5/22/15
43.060001	43.869999	43.049999	43.68	30372300	5/21/15
42.279999	43.040001	42.16	42.790001	54383700	5/20/15
44.380001	44.66	39.119999	40.98	41283000	5/19/15
44.52	44.57	44.040001	44.360001	8278800	5/18/15
45	45.07	44.689999	44.75	7751900	5/15/15
44.529999	44.990002	44.450001	44.950001	10098100	5/14/15
44.029999	44.669998	43.98	44.400002	10982100	5/13/15
44.299999	44.310001	43.689999	43.84	14226300	5/12/15
43.82	44.139999	43.59	43.599998	11502600	5/11/15
44.34	44.549999	44	44.09	15699400	5/8/15
44.93	44.98	43.549999	43.869999	28194200	5/7/15
41.310001	41.73	41.209999	41.66	13921000	5/6/15
41.860001	42	40.810001	41.299999	19278500	5/5/15
42.5	42.549999	41.830002	42.040001	14455200	5/4/15
42.549999	42.68	42.09	42.509998	10457300	5/1/15
43.119999	43.310001	42.259998	42.57	14218600	4/30/15
43.880001	44.049999	43.09	43.279999	12680000	4/29/15
44.34	44.57	43.939999	44.34	7188300	4/28/15
44.650002	45.099998	44.25	44.360001	10840900	4/27/15
43.73	44.709999	43.689999	44.52	11267500	4/24/15
43.919998	44.060001	43.580002	43.700001	14274900	4/23/15
44.580002	44.849998	43.669998	43.98	32241200	4/22/15
45.150002	45.18	44.450001	44.490002	16103700	4/21/15
44.73	44.91	44.41	44.66	10052900	4/20/15
45.299999	45.439999	44.25	44.450001	13305700	4/17/15
45.82	46.130001	45.529999	45.779999	13800300	4/16/15
45.459999	45.830002	45.23	45.73	15033500	4/15/15
44.82	45.639999	44.790001	45.529999	12365800	4/14/15
45.25	45.59	44.720001	44.77	8837300	4/13/15